…
ggplot(data = zimbabwe_mozambique_adm2) +
  geom_sf()

3.3 Mapping country
borders with {geodata}

A major limitation of {rgeoboundaries} is that it only
provides one column with all the names of the borders in that level:

geoboundaries(country = "Bolivia", adm_lvl = 3) %>% 
  
  as_tibble() %>% 
  select(contains("name"))

## # A tibble: 339 × 1
##    shapeName             
##    <chr>                 
##  1 Esmeralda             
##  2 Santuario de Quillacas
##  3 Pampa Aullagas        
##  4 Llallagua             
##  5 Caripuyo              
##  6 Aiquile               
##  7 Sacaca                
##  8 Acasio                
##  9 Huanuni               
## 10 Huachacalla           
## # … with 329 more rows

The gadm() function from the {geodata}
additionally provides the name of all the levels above the one
requested:

gadm(country = "Bolivia", level = 3, path = tempdir()) %>% 
  
  as_tibble() %>% 
  select(starts_with("NAME_"))

## # A tibble: 344 × 3
##    NAME_1 NAME_2                 NAME_3                      
##    <chr>  <chr>                  <chr>                       
##  1 Beni   Cercado                San Javier                  
##  2 Beni   Cercado                Trinidad                    
##  3 Beni   General José Ballivián Puerto Menor de Rurrenabaque
##  4 Beni   General José Ballivián Reyes                       
##  5 Beni   General José Ballivián San Borja                   
##  6 Beni   General José Ballivián Santa Rosa                  
##  7 Beni   Iténez                 Baures                      
##  8 Beni   Iténez                 Huacaraje                   
##  9 Beni   Iténez                 Magdalena                   
## 10 Beni   Mamoré                 Puerto Siles                
## # … with 334 more rows
…
For example, let’s filter the municipalities (level 3) from
the department (level 1) called Santa Cruz, in
Bolivia:

gadm(country = "Bolivia", level = 3, path = tempdir()) %>% 
  
  as_tibble() %>% 
  select(starts_with("NAME_")) %>% 
  
  filter(NAME_1 == "Santa Cruz") #👈👈👈👈👈👈👈👈👈👈👈👈👈👈

## # A tibble: 56 × 3
##    NAME_1     NAME_2         NAME_3                 
##    <chr>      <chr>          <chr>                  
##  1 Santa Cruz Andrés Ibáñez  Cotoca                 
##  2 Santa Cruz Andrés Ibáñez  El Torno               
##  3 Santa Cruz Andrés Ibáñez  La Guardia             
##  4 Santa Cruz Andrés Ibáñez  Porongo                
##  5 Santa Cruz Andrés Ibáñez  Santa Cruz de la Sierra
##  6 Santa Cruz Angel Sandoval San Matías             
##  7 Santa Cruz Chiquitos      Pailón                 
##  8 Santa Cruz Chiquitos      Roboré                 
##  9 Santa Cruz Chiquitos      San José               
## 10 Santa Cruz Cordillera     Boyuibe                
## # … with 46 more rows
…
